{"results":[{"vote_count":2106,"id":351286,"video":false,"vote_average":6.6,"title":"Jurassic World: Fallen Kingdom","popularity":215.291,"poster_path":"\/c9XxwwhPHdaImA2f1WEfEsbhaFB.jpg","original_language":"en","original_title":"Jurassic World: Fallen Kingdom","genre_ids":[28,12,878],"backdrop_path":"\/3s9O5af2xWKWR5JzP2iJZpZeQQg.jpg","adult":false,"overview":"Several years after the demise of Jurassic World, a volcanic eruption threatens the remaining dinosaurs on the island of Isla Nublar. Claire Dearing, the former park manager and founder of the Dinosaur Protection Group, recruits Owen Grady to help prevent the extinction of the dinosaurs once again.","release_date":"2018-06-06"},{"vote_count":771,"id":363088,"video":false,"vote_average":7,"title":"Ant-Man and the Wasp","popularity":172.476,"poster_path":"\/rv1AWImgx386ULjcf62VYaW8zSt.jpg","original_language":"en","original_title":"Ant-Man and the Wasp","genre_ids":[28,12,14,35,878],"backdrop_path":"\/6P3c80EOm7BodndGBUAJHHsHKrp.jpg","adult":false,"overview":"As Scott Lang awaits expiration of his term of house detention, Hope van Dyne and Dr. Hank Pym involve him in a scheme to rescue Mrs. van Dyne from the micro-universe into which she has fallen, while two groups of schemers converge on them with intentions of stealing Dr. Pym's inventions.","release_date":"2018-07-04"},{"vote_count":1319,"id":260513,"video":false,"vote_average":7.7,"title":"Incredibles 2","popularity":120.327,"poster_path":"\/x1txcDXkcM65gl7w20PwYSxAYah.jpg","original_language":"en","original_title":"Incredibles 2","genre_ids":[28,12,16,10751],"backdrop_path":"\/mabuNsGJgRuCTuGqjFkWe1xdu19.jpg","adult":false,"overview":"Elastigirl springs into action to save the day, while Mr. Incredible faces his greatest challenge yet – taking care of the problems of his three children.","release_date":"2018-06-14"},{"vote_count":329,"id":442249,"video":false,"vote_average":6.2,"title":"The First Purge","popularity":99.681,"poster_path":"\/2slvblTroiT1lY9bYLK7Amigo1k.jpg","original_language":"en","original_title":"The First Purge","genre_ids":[28,27,878,53],"backdrop_path":"\/dnaitaoCh8MftfYEVnprcuYExZp.jpg","adult":false,"overview":"To push the crime rate below one percent for the rest of the year, the New Founding Fathers of America test a sociological theory that vents aggression for one night in one isolated community. But when the violence of oppressors meets the rage of the others, the contagion will explode from the trial-city borders and spread across the nation.","release_date":"2018-07-04"},{"vote_count":2319,"id":447332,"video":false,"vote_average":7.2,"title":"A Quiet Place","popularity":77.864,"poster_path":"\/nAU74GmpUk7t5iklEp3bufwDq4n.jpg","original_language":"en","original_title":"A Quiet Place","genre_ids":[18,27,53,878],"backdrop_path":"\/roYyPiQDQKmIKUEhO912693tSja.jpg","adult":false,"overview":"A family is forced to live in silence while hiding from creatures that hunt by sound.","release_date":"2018-04-03"},{"vote_count":187,"id":447200,"video":false,"vote_average":6.1,"title":"Skyscraper","popularity":76.73,"poster_path":"\/5LYSsOPzuP13201qSzMjNxi8FxN.jpg","original_language":"en","original_title":"Skyscraper","genre_ids":[28,53,18],"backdrop_path":"\/oMKFQmoVgB69fyXfSMu0lGlHJP2.jpg","adult":false,"overview":"Framed and on the run, a former FBI agent must save his family from a blazing fire in the world's tallest building.","release_date":"2018-07-11"},{"vote_count":161,"id":400155,"video":false,"vote_average":7,"title":"Hotel Transylvania 3: Summer Vacation","popularity":74.556,"poster_path":"\/gjAFM4xhA5vyLxxKMz38ujlUfDL.jpg","original_language":"en","original_title":"Hotel Transylvania 3: Summer Vacation","genre_ids":[10751,14,35,16],"backdrop_path":"\/m03jul0YdVEOFXEQVUv6pOVQYGL.jpg","adult":false,"overview":"Dracula, Mavis, Johnny and the rest of the Drac Pack take a vacation on a luxury Monster Cruise Ship, where Dracula falls in love with the ship's captain, Ericka, who's secretly a descendant of Abraham Van Helsing, the notorious monster slayer.","release_date":"2018-06-30"},{"vote_count":10,"id":493006,"video":false,"vote_average":4.5,"title":"Detective Conan: Zero the Enforcer","popularity":55.253,"poster_path":"\/mMWV5MXn2pkDnnI4vWpy3dRWdNC.jpg","original_language":"ja","original_title":"名探偵コナン ゼロの執行人","genre_ids":[16,80,9648,28,18],"backdrop_path":"\/kEqeponciiz6TyuKWtnKSzXzbGa.jpg","adult":false,"overview":"There is a sudden explosion at Tokyo Summit's giant Edge of Ocean facility. The shadow of Tōru Amuro, who works for the National Police Agency Security Bureau as Zero, appears at the site. In addition, the \"triple-face\" character is known as Rei Furuya as a detective and Kogorō Mōri's apprentice, and he is also known as Bourbon as a Black Organization member. Kogorō is arrested as a suspect in the case of the explosion. Conan conducts an investigation to prove Kogorō's innocence, but Amuro gets in his way.","release_date":"2018-04-13"},{"vote_count":115,"id":454619,"video":false,"vote_average":5.9,"title":"Overboard","popularity":47.699,"poster_path":"\/qauHzSQJdo9VYX4NKn9PdWnvXOV.jpg","original_language":"en","original_title":"Overboard","genre_ids":[10749,35],"backdrop_path":"\/1c9UOyJP0FnhhdNoEvhI3ODcE3i.jpg","adult":false,"overview":"A spoiled, wealthy yacht owner is thrown overboard and becomes the target of revenge from his mistreated employee. A remake of the 1987 comedy.","release_date":"2018-05-03"},{"vote_count":6,"id":476292,"video":false,"vote_average":5.7,"title":"Maquia: When the Promised Flower Blooms","popularity":47.597,"poster_path":"\/vOrK1n6VgVCFBwgcq5tMoPCqa47.jpg","original_language":"ja","original_title":"さよならの朝に約束の花をかざろう","genre_ids":[16],"backdrop_path":"\/cfbjFQ14hSTgXChBEvaEjFiUaKb.jpg","adult":false,"overview":"A story of encounters and partings interwoven between people; this is a human drama with feelings that touch one's heart gradually, which everyone has experienced at least once.","release_date":"2018-02-24"},{"vote_count":82,"id":458423,"video":false,"vote_average":7.2,"title":"Mamma Mia! Here We Go Again","popularity":46.266,"poster_path":"\/aWicerX4Y7n7tUwRAVHsVcBBpj2.jpg","original_language":"en","original_title":"Mamma Mia! Here We Go Again","genre_ids":[35,10749,10402],"backdrop_path":"\/8HKwxHZ23sW8wz4yb28IWnAM1M6.jpg","adult":false,"overview":"On the Greek island of Kalokairi, the daughter of Donna Sheridan, Sophie, finds out more about her mother's past while seeking guidance on how to handle her pregnancy.","release_date":"2018-07-18"},{"vote_count":39,"id":345887,"video":false,"vote_average":5.8,"title":"The Equalizer 2","popularity":44.544,"poster_path":"\/cQvc9N6JiMVKqol3wcYrGshsIdZ.jpg","original_language":"en","original_title":"The Equalizer 2","genre_ids":[53,28,80],"backdrop_path":"\/a24i4Qw6qFTtkFLQsncv8WPwevj.jpg","adult":false,"overview":"Robert McCall returns to deliver his special brand of vigilante justice -- but how far will he go when it's someone he loves?","release_date":"2018-07-19"},{"vote_count":722,"id":460019,"video":false,"vote_average":6.1,"title":"Truth or Dare","popularity":34.499,"poster_path":"\/kdkNaQYZ7dhM80LsnAGKpH8ca2g.jpg","original_language":"en","original_title":"Truth or Dare","genre_ids":[53,27],"backdrop_path":"\/eQ5xu2pQ5Kergubto5PbbUzey28.jpg","adult":false,"overview":"A harmless game of \"Truth or Dare\" among friends turns deadly when someone—or something—begins to punish those who tell a lie—or refuse the dare.","release_date":"2018-04-12"},{"vote_count":671,"id":399174,"video":false,"vote_average":7.9,"title":"Isle of Dogs","popularity":33.887,"poster_path":"\/rSluCePdXXtNiQeE6Na5yRGamhL.jpg","original_language":"en","original_title":"Isle of Dogs","genre_ids":[12,35,16],"backdrop_path":"\/5YtXsLG9ncjjFyGZjoeV31CGf01.jpg","adult":false,"overview":"In the future, an outbreak of canine flu leads the mayor of a Japanese city to banish all dogs to an island that's a garbage dump. The outcasts must soon embark on an epic journey when a 12-year-old boy arrives on the island to find his beloved pet.","release_date":"2018-03-23"},{"vote_count":792,"id":429351,"video":false,"vote_average":5.1,"title":"12 Strong","popularity":32.816,"poster_path":"\/j18021qCeRi3yUBtqd2UFj1c0RQ.jpg","original_language":"en","original_title":"12 Strong","genre_ids":[10752,18,36],"backdrop_path":"\/wacEk5YSNE41QeKseilyytksXmv.jpg","adult":false,"overview":"A team of CIA agents and special forces head into Afghanistan in the aftermath of the September 11th attacks in an attempt to dismantle the Taliban.","release_date":"2018-01-16"},{"vote_count":108,"id":429417,"video":false,"vote_average":6.8,"title":"Ghost Stories","popularity":32.365,"poster_path":"\/7a0sai9k5jr7YJRP5S3YIDErMVY.jpg","original_language":"en","original_title":"Ghost Stories","genre_ids":[18,27],"backdrop_path":"\/7vyzEMfcEpBChEyK7cP6XW6B7hi.jpg","adult":false,"overview":"Arch sceptic Professor Phillip Goodman embarks upon a terror filled quest when he stumbles across a long-lost file containing details of three cases of inexplicable 'hauntings'.","release_date":"2018-04-06"},{"vote_count":236,"id":460668,"video":false,"vote_average":6.3,"title":"I Feel Pretty","popularity":31.804,"poster_path":"\/iuPs45XIxfARKPLEkCGXWUrBrTR.jpg","original_language":"en","original_title":"I Feel Pretty","genre_ids":[35],"backdrop_path":"\/3Zb4Du20mvKl0jlOtQ6lCFhpiiT.jpg","adult":false,"overview":"A head injury causes a woman to develop an extraordinary amount of confidence and believe she's drop dead gorgeous.","release_date":"2018-04-19"},{"vote_count":173,"id":440471,"video":false,"vote_average":4.5,"title":"Escape Plan 2: Hades","popularity":31.636,"poster_path":"\/Aqhl55vpzxNFqVfc2DpedUsR39L.jpg","original_language":"en","original_title":"Escape Plan 2: Hades","genre_ids":[80,28,53],"backdrop_path":"\/xIAaN3AQqaJiN5RJ0WsmBady8Hq.jpg","adult":false,"overview":"Ray Breslin manages an elite team of security specialists trained in the art of breaking people out of the world's most impenetrable prisons. When his most trusted operative, Shu Ren, is kidnapped and disappears inside the most elaborate prison ever built, Ray must track him down with the help of some of his former friends.","release_date":"2018-06-05"},{"vote_count":1311,"id":449176,"video":false,"vote_average":8.3,"title":"Love, Simon","popularity":30.922,"poster_path":"\/5YUYg5q7QfC4IoNwNUtiwdiYKPr.jpg","original_language":"en","original_title":"Love, Simon","genre_ids":[35,18,10749],"backdrop_path":"\/rqMEeajyzSF4PpJtdCB816Iz8Vr.jpg","adult":false,"overview":"Everyone deserves a great love story. But for seventeen-year old Simon Spier it's a little more complicated: he's yet to tell his family or friends he's gay and he doesn't know the identity of the anonymous classmate he's fallen for online.","release_date":"2018-02-16"},{"vote_count":12,"id":458005,"video":false,"vote_average":5.8,"title":"Zoe","popularity":30.776,"poster_path":"\/bigKAuVvCTJ4C60VLMiWHLuLUc0.jpg","original_language":"en","original_title":"Zoe","genre_ids":[878,10749],"backdrop_path":"\/wUjP4oqt6UL4OejZq7N2y8yBcU3.jpg","adult":false,"overview":"Two colleagues at a revolutionary research lab design technology to improve and perfect romantic relationships. As their work progresses, their discoveries become more profound.","release_date":"2018-07-19"}],"page":1,"total_results":866,"dates":{"maximum":"2018-07-23","minimum":"2018-06-05"},"total_pages":44}